Introduction to LifeIneq
…
This example compares relative measures of lifespan variation using
Hungarian period male life table data from the HMD. Hungary was
explicitly chosen because it experienced age-specific mortality trends
which differed by age in magnitude, and sometimes even direction.

First we read in a time series of Hungarian male life tables,
downloaded from the HMD.

library(dplyr)

LTs <- read.csv("HUNmltper_1x1.csv", head=T)

tibble(LTs)
#> # A tibble: 7,881 × 10
#>     Year   Age      mx      qx    ax     lx    dx    Lx      Tx    ex
#>    <int> <int>   <dbl>   <dbl> <dbl>  <int> <int> <int>   <int> <dbl>
#>  1  1950     0 0.0997  0.0932    0.3 100000  9320 93468 5993031  59.9
#>  2  1950     1 0.00756 0.00753   0.5  90680   683 90339 5899563  65.1
#>  3  1950     2 0.00348 0.00347   0.5  89997   313 89841 5809224  64.6
#>  4  1950     3 0.00278 0.00277   0.5  89685   249 89560 5719383  63.8
#>  5  1950     4 0.00198 0.00198   0.5  89436   177 89348 5629823  63.0
#>  6  1950     5 0.00149 0.00149   0.5  89259   133 89193 5540475  62.1
#>  7  1950     6 0.00172 0.00172   0.5  89126   153 89050 5451283  61.2
#>  8  1950     7 0.00118 0.00118   0.5  88973   105 88921 5362233  60.3
#>  9  1950     8 0.00133 0.00132   0.5  88868   118 88810 5273312  59.3
#> 10  1950     9 0.00118 0.00118   0.5  88751   105 88698 5184503  58.4
#> # ℹ 7,871 more rows
…
  # keeping results for conditional survival to ages 30 or 65
            filter(Age==30 | Age==65) %>%
            select(Year, Age, 
                   RL, AAD, 
                   COV_AAD, COV_RL, 
                   H_AAD, H_RL,
                   T_AAD, T_RL,
                   GINI_AAD, GINI_RL)
tibble(ineq)
#> # A tibble: 142 × 12
#>     Year   Age    RL   AAD COV_AAD COV_RL H_AAD  H_RL   T_AAD   T_RL GINI_AAD
#>    <int> <int> <dbl> <dbl>   <dbl>  <dbl> <dbl> <dbl>   <dbl>  <dbl>    <dbl>
#>  1  1950    30  39.7  69.7  0.197   0.346  1.16 0.282 0.0208  0.0714   0.110 
#>  2  1950    65  12.5  77.5  0.0933  0.579  1.09 0.536 0.00435 0.185    0.0533
#>  3  1951    30  39.5  69.5  0.190   0.335  1.15 0.271 0.0193  0.0669   0.106 
#>  4  1951    65  11.9  76.9  0.0899  0.581  1.08 0.536 0.00401 0.187    0.0514
#>  5  1952    30  39.6  69.6  0.186   0.327  1.15 0.265 0.0184  0.0635   0.104 
#>  6  1952    65  11.8  76.8  0.0889  0.580  1.08 0.536 0.00395 0.186    0.0507
#>  7  1953    30  39.9  69.9  0.178   0.311  1.14 0.251 0.0169  0.0573   0.0986
#>  8  1953    65  11.5  76.5  0.0862  0.572  1.08 0.530 0.00367 0.181    0.0492
#>  9  1954    30  40.4  70.4  0.177   0.309  1.14 0.251 0.0167  0.0562   0.0986
#> 10  1954    65  11.9  76.9  0.0891  0.576  1.08 0.534 0.00396 0.183    0.0509
#> # ℹ 132 more rows
#> # ℹ 1 more variable: GINI_RL <dbl>
…
# long format
Ineq_long <- ineq %>%
      pivot_longer(cols = RL:GINI_RL,
                   names_to = "Measure",
                   values_to = "Value") %>%
      left_join(New_cols)
#> Joining with `by = join_by(Measure)`

tibble(Ineq_long)
#> # A tibble: 1,420 × 6
#>     Year   Age Measure    Value Dist_type      Family            
#>    <int> <int> <chr>      <dbl> <chr>          <chr>             
#>  1  1950    30 RL       39.7    Remaining Life *Life Expectancy  
#>  2  1950    30 AAD      69.7    Age at Death   *Life Expectancy  
#>  3  1950    30 COV_AAD   0.197  Age at Death   Coef. of variation
#>  4  1950    30 COV_RL    0.346  Remaining Life Coef. of variation
#>  5  1950    30 H_AAD     1.16   Age at Death   Keyfitz-Leser H   
#>  6  1950    30 H_RL      0.282  Remaining Life Keyfitz-Leser H   
#>  7  1950    30 T_AAD     0.0208 Age at Death   Theil Index       
#>  8  1950    30 T_RL      0.0714 Remaining Life Theil Index       
#>  9  1950    30 GINI_AAD  0.110  Age at Death   Gini Coefficient  
#> 10  1950    30 GINI_RL   0.193  Remaining Life Gini Coefficient  
#> # ℹ 1,410 more rows
…
